<?xml version="1.0" encoding="UTF-8"?>
<svg width="32px" height="34px" viewBox="0 0 32 34" version="1.1" xmlns="http://www.w3.org/2000/svg" xmlns:xlink="http://www.w3.org/1999/xlink">
    <!-- Generator: Sketch 45.1 (43504) - http://www.bohemiancoding.com/sketch -->
    <title>(Logo) Aerospike</title>
    <desc>Created with Sketch.</desc>
    <defs></defs>
    <g id="Sign-In" stroke="none" stroke-width="1" fill="none" fill-rule="evenodd" opacity="0.845674819">
        <g id="Sign-Up" transform="translate(-926.000000, -361.000000)" fill-rule="nonzero" fill="#494949">
            <g id="logos" transform="translate(819.000000, 361.000000)">
                <g id="Group-2">
                    <g id="(Logo)-Aerospike" transform="translate(107.518797, 0.000000)">
                        <g id="Group">
                            <path d="M0,0 L31.450908,0 L31.450908,33.5105004 L0,33.5105004 L0,0 Z M7.89476186,17.7479844 L25.6506643,26.3076186 L25.6506643,24.1339938 L20.9905293,21.908864 L20.9905293,11.6832106 L25.6506643,9.48100499 L25.6506643,7.20288174 L7.89476186,15.7607298 L5.80024381,16.7923158 L7.89476186,17.7479844 Z" id="Shape"></path>
                        </g>
                    </g>
                </g>
            </g>
        </g>
    </g>
</svg>